{
  "migrate-history": [
    "cloud-function"
  ],
  "group-list": [
    "default"
  ],
  "collision-matrix": [
    [
      true
    ]
  ],
  "excluded-modules": [
    "3D Physics/Builtin"
  ],
  "preview-port": 7456,
  "design-resolution-width": 960,
  "design-resolution-height": 640,
  "fit-width": false,
  "fit-height": false,
  "use-project-simulator-setting": false,
  "simulator-orientation": false,
  "use-customize-simulator": true,
  "simulator-resolution": {
    "width": 960,
    "height": 640
  },
  "clear-simulator-cache": true,
  "facebook": {
    "enable": false,
    "appID": "",
    "live": {
      "enable": false
    },
    "audience": {
      "enable": false
    }
  },
  "start-scene": "d6e60c74-022d-4b6d-8935-11958203d1fe",
  "last-module-event-record-time": 1620719021120
}
